<?xml version="1.0" encoding="utf-8"?>
<!-- Generator: Adobe Illustrator 23.0.0, SVG Export Plug-In . SVG Version: 6.00 Build 0)  -->
<svg version="1.1" id="Ebene_1" focusable="false" xmlns="http://www.w3.org/2000/svg" xmlns:xlink="http://www.w3.org/1999/xlink"
	 x="0px" y="0px" viewBox="0 0 512 512" style="enable-background:new 0 0 512 512;" xml:space="preserve">
<style type="text/css">
	.st0{fill:#7ABE73;}
</style>
<path class="st0" d="M173.9,439.4L7.5,273c-10-10-10-26.2,0-36.2l36.2-36.2c10-10,26.2-10,36.2,0L192,312.7L432.1,72.6
	c10-10,26.2-10,36.2,0l36.2,36.2c10,10,10,26.2,0,36.2L210.1,439.4C200.1,449.4,183.9,449.4,173.9,439.4L173.9,439.4z"/>
</svg>
